%YAML 1.1
%TAG !u! tag:unity3d.com,2011:
--- !u!21 &2100000
Material:
  serializedVersion: 8
  m_ObjectHideFlags: 0
  m_CorrespondingSourceObject: {fileID: 0}
  m_PrefabInstance: {fileID: 0}
  m_PrefabAsset: {fileID: 0}
  m_Name: Chomper_Body_Mat
  m_Shader: {fileID: 4800000, guid: 0820a0e982543984ba06bc715cb33c89, type: 3}
  m_ValidKeywords: []
  m_InvalidKeywords: []
  m_LightmapFlags: 4
  m_EnableInstancingVariants: 0
  m_DoubleSidedGI: 0
  m_CustomRenderQueue: -1
  stringTagMap: {}
  disabledShaderPasses: []
  m_SavedProperties:
    serializedVersion: 3
    m_TexEnvs:
    - _AO:
        m_Texture: {fileID: 2800000, guid: 8b8f71b26727fd347aa7a9584bad7892, type: 3}
        m_Scale: {x: 1, y: 1}
        m_Offset: {x: 0, y: 0}
    - _BumpMap:
        m_Texture: {fileID: 2800000, guid: 937c2229d98699c4f9ac979b18b24a85, type: 3}
        m_Scale: {x: 1, y: 1}
        m_Offset: {x: 0, y: 0}
    - _DetailAlbedoMap:
        m_Texture: {fileID: 0}
        m_Scale: {x: 1, y: 1}
        m_Offset: {x: 0, y: 0}
    - _DetailMask:
        m_Texture: {fileID: 0}
        m_Scale: {x: 1, y: 1}
        m_Offset: {x: 0, y: 0}
    - _DetailNormalMap:
        m_Texture: {fileID: 0}
        m_Scale: {x: 1, y: 1}
        m_Offset: {x: 0, y: 0}
    - _EmissionMap:
        m_Texture: {fileID: 0}
        m_Scale: {x: 1, y: 1}
        m_Offset: {x: 0, y: 0}
    - _EmissiveTex:
        m_Texture: {fileID: 0}
        m_Scale: {x: 1, y: 1}
        m_Offset: {x: 0, y: 0}
    - _Gradient:
        m_Texture: {fileID: 2800000, guid: 0d67bfeb62a5a9f41b28f61a84bd49da, type: 3}
        m_Scale: {x: 1, y: 1}
        m_Offset: {x: 0, y: 0}
    - _MainTex:
        m_Texture: {fileID: 2800000, guid: a131a3e31f0c4794fbd8d1fd0d942b6a, type: 3}
        m_Scale: {x: 1, y: 1}
        m_Offset: {x: 0, y: 0}
    - _MetallicGlossMap:
        m_Texture: {fileID: 2800000, guid: b777e10d28a944c4ea05d834c049bdf0, type: 3}
        m_Scale: {x: 1, y: 1}
        m_Offset: {x: 0, y: 0}
    - _MetallicSmooth:
        m_Texture: {fileID: 2800000, guid: b777e10d28a944c4ea05d834c049bdf0, type: 3}
        m_Scale: {x: 1, y: 1}
        m_Offset: {x: 0, y: 0}
    - _Noise:
        m_Texture: {fileID: 2800000, guid: 0d67bfeb62a5a9f41b28f61a84bd49da, type: 3}
        m_Scale: {x: 3, y: 3}
        m_Offset: {x: 0, y: 0}
    - _Normal:
        m_Texture: {fileID: 2800000, guid: 937c2229d98699c4f9ac979b18b24a85, type: 3}
        m_Scale: {x: 1, y: 1}
        m_Offset: {x: 0, y: 0}
    - _NormalMap:
        m_Texture: {fileID: 2800000, guid: 937c2229d98699c4f9ac979b18b24a85, type: 3}
        m_Scale: {x: 1, y: 1}
        m_Offset: {x: 0, y: 0}
    - _OcclusionMap:
        m_Texture: {fileID: 2800000, guid: 8b8f71b26727fd347aa7a9584bad7892, type: 3}
        m_Scale: {x: 1, y: 1}
        m_Offset: {x: 0, y: 0}
    - _ParallaxMap:
        m_Texture: {fileID: 0}
        m_Scale: {x: 1, y: 1}
        m_Offset: {x: 0, y: 0}
    - _Ramp:
        m_Texture: {fileID: 2800000, guid: 20242c1e290e69746b039fce21bc8823, type: 3}
        m_Scale: {x: 1, y: 1}
        m_Offset: {x: 0, y: 0}
    - _SpecGloss:
        m_Texture: {fileID: 2800000, guid: b777e10d28a944c4ea05d834c049bdf0, type: 3}
        m_Scale: {x: 1, y: 1}
        m_Offset: {x: 0, y: 0}
    - _SpecGlossMap:
        m_Texture: {fileID: 2800000, guid: b777e10d28a944c4ea05d834c049bdf0, type: 3}
        m_Scale: {x: 1, y: 1}
        m_Offset: {x: 0, y: 0}
    - unity_Lightmaps:
        m_Texture: {fileID: 0}
        m_Scale: {x: 1, y: 1}
        m_Offset: {x: 0, y: 0}
    - unity_LightmapsInd:
        m_Texture: {fileID: 0}
        m_Scale: {x: 1, y: 1}
        m_Offset: {x: 0, y: 0}
    - unity_ShadowMasks:
        m_Texture: {fileID: 0}
        m_Scale: {x: 1, y: 1}
        m_Offset: {x: 0, y: 0}
    m_Ints: []
    m_Floats:
    - Vector1_3F7C734F: 1
    - Vector1_71216ECD: 0
    - Vector1_DF26E29A: 0.266
    - _AlphaThreshold: 0
    - _Amount: 0
    - _BumpScale: 1
    - _Cutoff: 0
    - _DetailNormalMapScale: 1
    - _DisplaceAmount: 0.5
    - _DstBlend: 0
    - _EdgeSize: 0.055
    - _GlossMapScale: 0.95
    - _Glossiness: 0
    - _GlossyReflections: 1
    - _GlowPower: 1
    - _MaxDiff: 0.107
    - _Metallic: 0
    - _Mode: 0
    - _NoiseAmount: 0.4
    - _NoiseStrength: 0.087
    - _OcclusionStrength: 1
    - _Parallax: 0.02
    - _QueueControl: 0
    - _QueueOffset: 0
    - _RimPower: 0.3
    - _RimPower2: 0.31
    - _SmoothnessTextureChannel: 0
    - _Specular: 0.083
    - _SpecularHighlights: 1
    - _SrcBlend: 1
    - _UVSec: 0
    - _Use_Gradient: 1
    - _VertexAnimate: 0
    - _YMax: 1
    - _YMin: -1
    - _ZWrite: 1
    m_Colors:
    - Color_4157D676: {r: 0.7107948, g: 0.6694998, b: 0.8018868, a: 1}
    - _BoundingBox: {r: 1, g: 2.1, b: 1, a: 0}
    - _Color: {r: 1, g: 0.16892941, b: 0, a: 1}
    - _Color1: {r: 1, g: 1, b: 1, a: 1}
    - _Color2: {r: 0.9926466, g: 4.00507, b: 5, a: 1}
    - _EdgeColor1: {r: 0.3764706, g: 2, b: 0, a: 1}
    - _EdgeColor2: {r: 0, g: 3.4931884, b: 16.339111, a: 1}
    - _Emission: {r: 0, g: 2.9960785, b: 0, a: 0}
    - _EmissionColor: {r: 0, g: 0, b: 0, a: 1}
    - _EmissiveColor: {r: 0, g: 0, b: 0, a: 1}
    - _FresnelAmount: {r: 1, g: 1, b: 1, a: 1}
    - _GlowColor: {r: 2.4913447, g: 0, b: 0.06827952, a: 1}
    - _RimColor: {r: 1, g: 1, b: 1, a: 0}
    - _SpecCol: {r: 1, g: 1, b: 1, a: 0}
    - _SpecColor: {r: 0.1102941, g: 0.1102941, b: 0.1102941, a: 1}
  m_BuildTextureStacks: []
--- !u!114 &4656740984133130559
MonoBehaviour:
  m_ObjectHideFlags: 11
  m_CorrespondingSourceObject: {fileID: 0}
  m_PrefabInstance: {fileID: 0}
  m_PrefabAsset: {fileID: 0}
  m_GameObject: {fileID: 0}
  m_Enabled: 1
  m_EditorHideFlags: 0
  m_Script: {fileID: 11500000, guid: d0353a89b1f911e48b9e16bdc9f2e058, type: 3}
  m_Name: 
  m_EditorClassIdentifier: 
  version: 5
